…
# format_hhb_sensors works with all HHBv2 firmwares

    Code
      format_hhb_sensors(hhb_log_240111, hhb_header_240111)
    Output
      # A tibble: 61 x 9
         HHBserial LogFileName           Position ID    SampleTime DateTimeUTC        
         <chr>     <chr>                    <dbl> <chr> <drtn>     <dttm>             
       1 HHB00032  HHB00032_LOG_2024-07~        1 2021~   0 secs   2024-07-01 18:20:00
       2 HHB00032  HHB00032_LOG_2024-07~        1 2021~  30 secs   2024-07-01 18:20:30
       3 HHB00032  HHB00032_LOG_2024-07~        1 2021~  60 secs   2024-07-01 18:21:00
       4 HHB00032  HHB00032_LOG_2024-07~        1 2021~  90 secs   2024-07-01 18:21:30
       5 HHB00032  HHB00032_LOG_2024-07~        1 2021~ 120 secs   2024-07-01 18:22:00
       6 HHB00032  HHB00032_LOG_2024-07~        1 2021~ 150 secs   2024-07-01 18:22:30
       7 HHB00032  HHB00032_LOG_2024-07~        1 2021~ 180 secs   2024-07-01 18:23:00
       8 HHB00032  HHB00032_LOG_2024-07~        1 2021~ 210 secs   2024-07-01 18:23:30
       9 HHB00032  HHB00032_LOG_2024-07~        1 2021~ 240 secs   2024-07-01 18:24:00
      10 HHB00032  HHB00032_LOG_2024-07~        1 2021~ 270 secs   2024-07-01 18:24:30
      # i 51 more rows
      # i 3 more variables: G.SCD30_Temp <dbl>, WE <dbl>, AUX <dbl>

---

    Code
      format_hhb_sensors(hhb_log_250529, hhb_header_250529)
    Output
      # A tibble: 33 x 18
         HHBserial LogFileName   Position ID    Type  ISB_Gain Sensitivity   WEt   WEe
         <chr>     <chr>            <dbl> <chr> <chr>    <dbl>       <dbl> <dbl> <dbl>
       1 HHB00087  HHB00087_LOG~        1 2021~ NO2-~    -0.73       -297.   235   236
       2 HHB00087  HHB00087_LOG~        1 2021~ NO2-~    -0.73       -297.   235   236
       3 HHB00087  HHB00087_LOG~        1 2021~ NO2-~    -0.73       -297.   235   236
       4 HHB00087  HHB00087_LOG~        1 2021~ NO2-~    -0.73       -297.   235   236
       5 HHB00087  HHB00087_LOG~        1 2021~ NO2-~    -0.73       -297.   235   236
       6 HHB00087  HHB00087_LOG~        1 2021~ NO2-~    -0.73       -297.   235   236
       7 HHB00087  HHB00087_LOG~        1 2021~ NO2-~    -0.73       -297.   235   236
       8 HHB00087  HHB00087_LOG~        1 2021~ NO2-~    -0.73       -297.   235   236
       9 HHB00087  HHB00087_LOG~        1 2021~ NO2-~    -0.73       -297.   235   236
      10 HHB00087  HHB00087_LOG~        1 2021~ NO2-~    -0.73       -297.   235   236
      # i 23 more rows
      # i 9 more variables: AEt <dbl>, AEe <dbl>, SampleTime <drtn>,
      #   DateTimeUTC <dttm>, G.SCD30_Temp <dbl>, WE <dbl>, AUX <dbl>, Alg <dbl>,
      #   ppb <dbl>
